{
    "sphere": {
        "position": {"x":-100, "y":-100, "z":0},
        "radius": 100.0,
        "color": {"x":1.0, "y":0.5, "z":0.7}
    },
    "triangle": {
        "v0": {"x":-300.0, "y":-300.0, "z":-300.0},
        "v1": {"x": 300.0, "y":-300.0, "z":-300.0},
        "v2": {"x": 300.0, "y":-300.0, "z": 300.0},
        "color": {"x":0.2, "y":0.9, "z":0.1}
    }
}
